{
  "compilerOptions": {
    "baseUrl": ".",
    "paths": {
      "$lib": [
        "src/lib"
      ],
      "$lib/*": [
        "src/lib/*"
      ],
      "$components": [
        "src/components"
      ],
      "$components/*": [
        "src/components/*"
      ],
      "$i18n": [
        "src/i18n"
      ],
      "$i18n/*": [
        "src/i18n/*"
      ]
    }
  },
  "include": [
    "src/**/*.d.ts",
    "src/**/*.js",
    "src/**/*.svelte"
  ]
}
